…
``` r
lda_df
```

    ## # A tibble: 160 x 4
    ##    group    id  week obs_value
    ##    <chr> <dbl> <dbl>     <dbl>
    ##  1 con       1     1      0.2 
    ##  2 con       1     2     -1.31
    ##  3 con       1     3      0.66
    ##  4 con       1     4      1.96
    ##  5 con       1     5      0.23
    ##  6 con       1     6      1.09
    ##  7 con       1     7      0.05
    ##  8 con       1     8      1.94
    ##  9 con       2     1      1.13
    ## 10 con       2     2     -0.88
    ## # … with 150 more rows
…
